Unsupervised Learning Lab II (L04)
…
college_kmeans =  onedata%>%
  crossing(nclust = 2:6) %>%
  mutate(kmean = map2(xmat, nclust, kmeans, nstart=20), # Fit K-means
         clusters = map2(college, kmean, getkmeanscluster)) # Get DFs with cluster affiliation
# show k-means results
college_kmeans %>%
  pluck("clusters", 1) %>%
  select("name", "cluster")

## # A tibble: 777 x 2
##    name                         cluster
##    <fct>                          <int>
##  1 Abilene Christian University       1
##  2 Adelphi University                 2
##  3 Adrian College                     2
##  4 Agnes Scott College                2
##  5 Alaska Pacific University          1
##  6 Albertson College                  2
##  7 Albertus Magnus College            2
##  8 Albion College                     2
##  9 Albright College                   2
## 10 Alderson-Broaddus College          1
## #  with 767 more rows

college_kmeans %>%
  pluck("clusters", 2) %>%
  select("name", "cluster")

## # A tibble: 777 x 2
##    name                         cluster
##    <fct>                          <int>
##  1 Abilene Christian University       3
##  2 Adelphi University                 3
##  3 Adrian College                     3
##  4 Agnes Scott College                3
##  5 Alaska Pacific University          3
##  6 Albertson College                  3
##  7 Albertus Magnus College            3
##  8 Albion College                     3
##  9 Albright College                   3
## 10 Alderson-Broaddus College          3
## #  with 767 more rows

college_kmeans %>%
  pluck("clusters", 3) %>%
  select("name", "cluster")

## # A tibble: 777 x 2
##    name                         cluster
##    <fct>                          <int>
##  1 Abilene Christian University       4
##  2 Adelphi University                 3
##  3 Adrian College                     3
##  4 Agnes Scott College                3
##  5 Alaska Pacific University          4
##  6 Albertson College                  3
##  7 Albertus Magnus College            3
##  8 Albion College                     3
##  9 Albright College                   3
## 10 Alderson-Broaddus College          3
## #  with 767 more rows

college_kmeans %>%
  pluck("clusters", 4) %>%
  select("name", "cluster")

## # A tibble: 777 x 2
##    name                         cluster
##    <fct>                          <int>
##  1 Abilene Christian University       3
##  2 Adelphi University                 3
##  3 Adrian College                     3
##  4 Agnes Scott College                3
##  5 Alaska Pacific University          3
##  6 Albertson College                  3
##  7 Albertus Magnus College            4
##  8 Albion College                     4
##  9 Albright College                   4
## 10 Alderson-Broaddus College          3
## #  with 767 more rows

college_kmeans %>%
  pluck("clusters", 5) %>%
  select("name", "cluster")

## # A tibble: 777 x 2
##    name                         cluster
##    <fct>                          <int>
##  1 Abilene Christian University       1
##  2 Adelphi University                 1
##  3 Adrian College                     1
##  4 Agnes Scott College                1
##  5 Alaska Pacific University          1
##  6 Albertson College                  1
##  7 Albertus Magnus College            1
##  8 Albion College                     5
##  9 Albright College                   5
## 10 Alderson-Broaddus College          1
## #  with 767 more rows
…
# get the cluster data
college_hclust <- college_hclust %>%
  mutate(clusters = map2(hcl, 3, cut_hclust), # Cut dendo
         clust_dat = map2(college, clusters, get_cluster)) # Get cluster info
# show the result
oneclust_result = college_hclust$clust_dat[[1]] %>%
  select("name", "cluster") 
oneclust_result

## # A tibble: 777 x 2
##    name                         cluster
##    <fct>                          <int>
##  1 Abilene Christian University       1
##  2 Adelphi University                 1
##  3 Adrian College                     1
##  4 Agnes Scott College                1
##  5 Alaska Pacific University          1
##  6 Albertson College                  1
##  7 Albertus Magnus College            1
##  8 Albion College                     1
##  9 Albright College                   1
## 10 Alderson-Broaddus College          1
## #  with 767 more rows

Run spectral clustering using the radial kernel. Set the number of clusters for the algorithm equal to the number of clusters you found useful in parts (a-b). Do you obtain different clusters than those algorithms?

# Fit a spectral cluster w/ 3 clusters
college_spclus <- onedata %>%
  mutate(spec = map2(xmat, 3, specc, kernal = "radial"))
# get cluster info
college_spclus <- college_spclus %>%
  mutate(spec_clus_data = map2(college, spec, get_cluster))
# show the result
spec_result = college_spclus$spec_clus_data[[1]] %>%
  select("name", "cluster") 
spec_result

## # A tibble: 777 x 2
##    name                         cluster
##    <fct>                          <int>
##  1 Abilene Christian University       3
##  2 Adelphi University                 3
##  3 Adrian College                     3
##  4 Agnes Scott College                3
##  5 Alaska Pacific University          3
##  6 Albertson College                  3
##  7 Albertus Magnus College            3
##  8 Albion College                     3
##  9 Albright College                   3
## 10 Alderson-Broaddus College          3
## #  with 767 more rows
…
